simulation/qsim/GeradorPWM.msim.vcd
$comment
	File created using the following command:
		vcd file GeradorPWM.msim.vcd -direction
$end
$date
	Sun Jun 11 22:33:34 2023
$end
$version
	ModelSim Version 10.5b
$end
$timescale
	1ps
$end

$scope module oscilador_customizado_vlg_vec_tst $end
$var reg 1 ! clock $end
$var reg 1 " habilitar_contagem $end
$var reg 1 # reset $end
$var wire 1 $ pulso $end

$scope module i1 $end
$var wire 1 % gnd $end
$var wire 1 & vcc $end
$var wire 1 ' unknown $end
$var tri1 1 ( devclrn $end
$var tri1 1 ) devpor $end
$var tri1 1 * devoe $end
$var wire 1 + pulso~output_o $end
$var wire 1 , clock~input_o $end
$var wire 1 - habilitar_contagem~input_o $end
$var wire 1 . Add1~10 $end
$var wire 1 / Add1~5_sumout $end
$var wire 1 0 Add1~29_sumout $end
$var wire 1 1 Add0~29_sumout $end
$var wire 1 2 contador~7_combout $end
$var wire 1 3 reset~input_o $end
$var wire 1 4 Add1~30 $end
$var wire 1 5 Add1~25_sumout $end
$var wire 1 6 Add0~30 $end
$var wire 1 7 Add0~25_sumout $end
$var wire 1 8 contador~6_combout $end
$var wire 1 9 Add1~26 $end
$var wire 1 : Add1~21_sumout $end
$var wire 1 ; Add0~26 $end
$var wire 1 < Add0~21_sumout $end
$var wire 1 = contador~5_combout $end
$var wire 1 > Add1~22 $end
$var wire 1 ? Add1~17_sumout $end
$var wire 1 @ Add0~22 $end
$var wire 1 A Add0~17_sumout $end
$var wire 1 B contador~4_combout $end
$var wire 1 C Add0~18 $end
$var wire 1 D Add0~14 $end
$var wire 1 E Add0~10 $end
$var wire 1 F Add0~5_sumout $end
$var wire 1 G contador~1_combout $end
$var wire 1 H LessThan2~1_combout $end
$var wire 1 I Add1~18 $end
$var wire 1 J Add1~13_sumout $end
$var wire 1 K Add0~13_sumout $end
$var wire 1 L contador~3_combout $end
$var wire 1 M Add1~14 $end
$var wire 1 N Add1~9_sumout $end
$var wire 1 O Add0~9_sumout $end
$var wire 1 P contador~2_combout $end
$var wire 1 Q LessThan2~0_combout $end
$var wire 1 R Add1~6 $end
$var wire 1 S Add1~1_sumout $end
$var wire 1 T Add0~6 $end
$var wire 1 U Add0~1_sumout $end
$var wire 1 V contador~0_combout $end
$var wire 1 W pulso~0_combout $end
$var wire 1 X pulso~1_combout $end
$var wire 1 Y pulso~reg0_q $end
$var wire 1 Z contador [7] $end
$var wire 1 [ contador [6] $end
$var wire 1 \ contador [5] $end
$var wire 1 ] contador [4] $end
$var wire 1 ^ contador [3] $end
$var wire 1 _ contador [2] $end
$var wire 1 ` contador [1] $end
$var wire 1 a contador [0] $end
$upscope $end
$upscope $end
$enddefinitions $end
#0
$dumpvars
0!
1"
1#
0$
0%
1&
x'
1(
1)
1*
0+
0,
1-
0.
1/
10
11
12
13
04
15
06
07
08
09
0:
0;
0<
0=
0>
1?
0@
0A
0B
0C
0D
0E
0F
0G
1H
0I
1J
0K
0L
0M
1N
0O
0P
0Q
0R
1S
0T
0U
0V
1W
1X
0Y
0a
0`
0_
0^
0]
0\
0[
0Z
$end
#5000
1!
1,
1a
1Y
1+
16
01
14
00
1$
0X
17
19
05
02
1:
18
#10000
0!
0,
#15000
1!
1,
1`
0a
0Y
0+
06
11
04
10
0W
1;
07
15
0$
1X
0;
17
05
1<
08
0X
12
0<
1=
18
0=
#20000
0!
0,
#25000
1!
1,
1a
16
01
14
00
1;
07
15
02
1<
08
1=
#30000
0!
0,
#35000
1!
1,
1_
0`
0a
06
11
04
10
0;
17
05
1@
0<
1>
0:
07
09
15
0@
1<
1A
1I
0?
0=
18
12
0>
1:
0A
1M
0J
1B
1=
08
0I
1?
1.
0N
0B
0M
1J
1R
0/
0.
1N
0S
0R
1/
1S
#40000
0!
0,
#45000
1!
1,
1a
16
01
14
00
17
19
05
02
1>
0:
18
1I
0?
1M
0J
1.
0N
1R
0/
0S
#50000
0!
0,
#55000
1!
1,
1`
0a
06
11
04
10
1;
07
15
0;
17
05
1@
0<
08
12
0@
1<
1A
0=
18
0A
1B
1=
0B
#60000
0!
0,
#65000
1!
1,
1a
16
01
14
00
1;
07
15
02
1@
0<
08
1A
0=
1B
#70000
0!
0,
#75000
1!
1,
1^
0_
0`
0a
06
11
04
10
0;
17
05
0@
1<
0>
1:
1C
0A
1?
07
09
15
0<
0C
1A
0?
1K
0B
1=
18
12
0:
0K
1L
1B
0=
08
0L
#80000
0!
0,
#85000
1!
1,
1a
16
01
14
00
17
19
05
02
1:
18
#90000
0!
0,
#95000
1!
1,
1`
0a
06
11
04
10
1;
07
15
0;
17
05
1<
08
12
0<
1=
18
0=
#100000
0!
0,
#105000
1!
1,
1a
16
01
14
00
1;
07
15
02
1<
08
1=
#110000
0!
0,
#115000
1!
1,
1_
0`
0a
06
11
04
10
0;
17
05
1@
0<
1>
0:
07
09
15
0@
1<
1C
0A
1?
0=
18
12
0>
1:
0C
1A
1K
0B
1=
08
0?
0K
1L
1B
0L
#120000
0!
0,
#125000
1!
1,
1a
16
01
14
00
17
19
05
02
1>
0:
18
1?
#130000
0!
0,
#135000
1!
1,
1`
0a
06
11
04
10
1;
07
15
0;
17
05
1@
0<
08
12
0@
1<
1C
0A
0=
18
0C
1A
1K
0B
1=
0K
1L
1B
0L
#140000
0!
0,
#145000
1!
1,
1a
16
01
14
00
1;
07
15
02
1@
0<
08
1C
0A
0=
1K
0B
1L
#150000
0!
0,
#155000
1!
1,
1]
0^
0_
0`
0a
06
11
04
10
0;
17
05
0@
1<
0>
1:
0C
1A
0?
1J
1D
0K
07
09
15
0<
0A
0I
1?
0D
1K
1O
0L
1B
1=
18
12
0:
0J
0O
1P
1L
0B
0=
08
0P
#160000
0!
0,
#165000
1!
1,
1a
16
01
14
00
17
19
05
02
1:
18
#170000
0!
0,
#175000
1!
1,
1`
0a
06
11
04
10
1;
07
15
0;
17
05
1<
08
12
0<
1=
18
0=
#180000
0!
0,
#185000
1!
1,
1a
16
01
14
00
1;
07
15
02
1<
08
1=
#190000
0!
0,
#195000
1!
1,
1_
0`
0a
06
11
04
10
0;
17
05
1@
0<
1>
0:
07
09
15
0@
1<
1A
1I
0?
0=
18
12
0>
1:
0A
1J
1B
1=
08
0I
1?
0B
0J
#200000
0!
0,
#205000
1!
1,
1a
16
01
14
00
17
19
05
02
1>
0:
18
1I
0?
1J
#210000
0!
0,
#215000
1!
1,
1`
0a
06
11
04
10
1;
07
15
0;
17
05
1@
0<
08
12
0@
1<
1A
0=
18
0A
1B
1=
0B
#220000
0!
0,
#225000
1!
1,
1a
16
01
14
00
1;
07
15
02
1@
0<
08
1A
0=
1B
#230000
0!
0,
#235000
1!
1,
1^
0_
0`
0a
06
11
04
10
0;
17
05
0@
1<
0>
1:
1C
0A
1?
07
09
15
0<
0C
1A
0?
1D
0K
0B
1=
18
12
0:
0D
1K
1O
0L
1B
0=
08
0O
1P
1L
0P
#240000
0!
0,
#245000
1!
1,
1a
16
01
14
00
17
19
05
02
1:
18
#250000
0!
0,
#255000
1!
1,
1`
0a
06
11
04
10
1;
07
15
0;
17
05
1<
08
12
0<
1=
18
0=
#260000
0!
0,
#265000
1!
1,
1a
16
01
14
00
1;
07
15
02
1<
08
1=
#270000
0!
0,
#275000
1!
1,
1_
0`
0a
06
11
04
10
0;
17
05
1@
0<
1>
0:
07
09
15
0@
1<
1C
0A
1?
0=
18
12
0>
1:
0C
1A
1D
0K
0B
1=
08
0?
0D
1K
1O
0L
1B
0O
1P
1L
0P
#280000
0!
0,
#285000
1!
1,
1a
16
01
14
00
17
19
05
02
1>
0:
18
1?
#290000
0!
0,
#295000
1!
1,
1`
0a
06
11
04
10
1;
07
15
0;
17
05
1@
0<
08
12
0@
1<
1C
0A
0=
18
0C
1A
1D
0K
0B
1=
0D
1K
1O
0L
1B
0O
1P
1L
0P
#300000
0"
0!
0-
0,
#305000
1!
1,
0]
0^
0_
0`
1W
07
09
15
0<
0>
1:
0A
0?
0J
0K
0:
0I
1?
0L
0B
0=
08
0M
1J
0.
1N
0R
1/
1S
#310000
0!
0,
#315000
1!
1,
#320000
0!
0,
#325000
1!
1,
#330000
0!
0,
#335000
1!
1,
#340000
0!
0,
#345000
1!
1,
#350000
0!
0,
#355000
1!
1,
#360000
0!
0,
#365000
1!
1,
#370000
0!
0,
#375000
1!
1,
#380000
0!
0,
#385000
1!
1,
#390000
0!
0,
#395000
1!
1,
#400000
0!
0,
#405000
1!
1,
#410000
0!
0,
#415000
1!
1,
#420000
1"
0!
1-
0,
1X
#425000
1!
1,
1a
1Y
1+
16
01
14
00
1$
0X
17
19
05
02
1:
18
#430000
0!
0,
#435000
1!
1,
1`
0a
0Y
0+
06
11
04
10
0W
1;
07
15
0$
1X
0;
17
05
1<
08
0X
12
0<
1=
18
0=
#440000
0!
0,
#445000
1!
1,
1a
16
01
14
00
1;
07
15
02
1<
08
1=
#450000
0!
0,
#455000
1!
1,
1_
0`
0a
06
11
04
10
0;
17
05
1@
0<
1>
0:
07
09
15
0@
1<
1A
1I
0?
0=
18
12
0>
1:
0A
1M
0J
1B
1=
08
0I
1?
1.
0N
0B
0M
1J
1R
0/
0.
1N
0S
0R
1/
1S
#460000
0!
0,
#465000
1!
1,
1a
16
01
14
00
17
19
05
02
1>
0:
18
1I
0?
1M
0J
1.
0N
1R
0/
0S
#470000
0!
0,
#475000
1!
1,
1`
0a
06
11
04
10
1;
07
15
0;
17
05
1@
0<
08
12
0@
1<
1A
0=
18
0A
1B
1=
0B
#480000
0!
0,
#485000
1!
1,
1a
16
01
14
00
1;
07
15
02
1@
0<
08
1A
0=
1B
#490000
0!
0,
#495000
1!
1,
1^
0_
0`
0a
06
11
04
10
0;
17
05
0@
1<
0>
1:
1C
0A
1?
07
09
15
0<
0C
1A
0?
1K
0B
1=
18
12
0:
0K
1L
1B
0=
08
0L
#500000
0!
0,
#505000
1!
1,
1a
16
01
14
00
17
19
05
02
1:
18
#510000
0!
0,
#515000
1!
1,
1`
0a
06
11
04
10
1;
07
15
0;
17
05
1<
08
12
0<
1=
18
0=
#520000
0!
0,
#525000
1!
1,
1a
16
01
14
00
1;
07
15
02
1<
08
1=
#530000
0!
0,
#535000
1!
1,
1_
0`
0a
06
11
04
10
0;
17
05
1@
0<
1>
0:
07
09
15
0@
1<
1C
0A
1?
0=
18
12
0>
1:
0C
1A
1K
0B
1=
08
0?
0K
1L
1B
0L
#540000
0!
0,
#545000
1!
1,
1a
16
01
14
00
17
19
05
02
1>
0:
18
1?
#550000
0!
0,
#555000
1!
1,
1`
0a
06
11
04
10
1;
07
15
0;
17
05
1@
0<
08
12
0@
1<
1C
0A
0=
18
0C
1A
1K
0B
1=
0K
1L
1B
0L
#560000
0!
0,
#565000
1!
1,
1a
16
01
14
00
1;
07
15
02
1@
0<
08
1C
0A
0=
1K
0B
1L
#570000
0!
0,
#575000
1!
1,
1]
0^
0_
0`
0a
06
11
04
10
0;
17
05
0@
1<
0>
1:
0C
1A
0?
1J
1D
0K
07
09
15
0<
0A
0I
1?
0D
1K
1O
0L
1B
1=
18
12
0:
0J
0O
1P
1L
0B
0=
08
0P
#580000
0!
0,
#585000
1!
1,
1a
16
01
14
00
17
19
05
02
1:
18
#590000
0!
0,
#595000
1!
1,
1`
0a
06
11
04
10
1;
07
15
0;
17
05
1<
08
12
0<
1=
18
0=
#600000
0!
0,
#605000
1!
1,
1a
16
01
14
00
1;
07
15
02
1<
08
1=
#610000
0!
0,
#615000
1!
1,
1_
0`
0a
06
11
04
10
0;
17
05
1@
0<
1>
0:
07
09
15
0@
1<
1A
1I
0?
0=
18
12
0>
1:
0A
1J
1B
1=
08
0I
1?
0B
0J
#620000
0!
0,
#625000
1!
1,
1a
16
01
14
00
17
19
05
02
1>
0:
18
1I
0?
1J
#630000
0!
0,
#635000
1!
1,
1`
0a
06
11
04
10
1;
07
15
0;
17
05
1@
0<
08
12
0@
1<
1A
0=
18
0A
1B
1=
0B
#640000
0!
0,
#645000
1!
1,
1a
16
01
14
00
1;
07
15
02
1@
0<
08
1A
0=
1B
#650000
0!
0,
#655000
1!
1,
1^
0_
0`
0a
06
11
04
10
0;
17
05
0@
1<
0>
1:
1C
0A
1?
07
09
15
0<
0C
1A
0?
1D
0K
0B
1=
18
12
0:
0D
1K
1O
0L
1B
0=
08
0O
1P
1L
0P
#660000
0!
0,
#665000
1!
1,
1a
16
01
14
00
17
19
05
02
1:
18
#670000
0!
0,
#675000
1!
1,
1`
0a
06
11
04
10
1;
07
15
0;
17
05
1<
08
12
0<
1=
18
0=
#680000
0!
0,
#685000
1!
1,
1a
16
01
14
00
1;
07
15
02
1<
08
1=
#690000
0!
0,
#695000
1!
1,
1_
0`
0a
06
11
04
10
0;
17
05
1@
0<
1>
0:
07
09
15
0@
1<
1C
0A
1?
0=
18
12
0>
1:
0C
1A
1D
0K
0B
1=
08
0?
0D
1K
1O
0L
1B
0O
1P
1L
0P
#700000
0!
0,
#705000
1!
1,
1a
16
01
14
00
17
19
05
02
1>
0:
18
1?
#710000
0!
0,
#715000
1!
1,
1`
0a
06
11
04
10
1;
07
15
0;
17
05
1@
0<
08
12
0@
1<
1C
0A
0=
18
0C
1A
1D
0K
0B
1=
0D
1K
1O
0L
1B
0O
1P
1L
0P
#720000
0!
0,
#725000
1!
1,
1a
16
01
14
00
1;
07
15
02
1@
0<
08
1C
0A
0=
1D
0K
0B
1O
0L
1P
#730000
0!
0,
#735000
1!
1,
1\
0]
0^
0_
0`
0a
06
11
04
10
0;
17
05
0@
1<
0>
1:
0C
1A
0?
0J
0D
1K
1E
0O
1N
07
09
15
0<
0A
0I
1?
0K
0E
1O
1F
0P
1L
1B
1=
18
12
0:
0M
1J
0F
1G
1P
0L
0B
0=
08
0N
0G
#740000
0!
0,
#745000
1!
1,
1a
16
01
14
00
17
19
05
02
1:
18
#750000
0!
0,
#755000
1!
1,
1`
0a
06
11
04
10
1;
07
15
0;
17
05
1<
08
12
0<
1=
18
0=
#760000
0!
0,
#765000
1!
1,
1a
16
01
14
00
1;
07
15
02
1<
08
1=
#770000
0!
0,
#775000
1!
1,
1_
0`
0a
06
11
04
10
0;
17
05
1@
0<
1>
0:
07
09
15
0@
1<
1A
1I
0?
0=
18
12
0>
1:
0A
1M
0J
1B
1=
08
0I
1?
1N
0B
0M
1J
0N
#780000
0!
0,
#785000
1!
1,
1a
16
01
14
00
17
19
05
02
1>
0:
18
1I
0?
1M
0J
1N
#790000
0!
0,
#795000
1!
1,
1`
0a
06
11
04
10
1;
07
15
0;
17
05
1@
0<
08
12
0@
1<
1A
0=
18
0A
1B
1=
0B
#800000
0!
0,
#805000
1!
1,
1a
16
01
14
00
1;
07
15
02
1@
0<
08
1A
0=
1B
#810000
0!
0,
#815000
1!
1,
1^
0_
0`
0a
06
11
04
10
1W
0;
17
05
0@
1<
0>
1:
1C
0A
1?
07
09
15
0<
0C
1A
0?
1K
0B
1=
18
1X
12
0:
0K
1L
1B
0=
08
0L
#820000
0!
0,
#825000
1!
1,
1a
1Y
1+
1Q
16
01
14
00
1$
0X
17
19
05
02
0B
18
1:
08
1=
#830000
0!
0,
#835000
1!
1,
0^
1_
0a
0Y
0+
0Q
06
11
04
10
0W
1<
1>
0:
0A
0I
1?
0$
1X
07
09
15
1I
0?
0M
1J
0X
12
18
0>
1:
1M
0J
0N
08
0I
1?
1N
0M
1J
0N
#840000
0!
0,
#845000
1!
1,
1a
16
01
14
00
17
19
05
02
1>
0:
18
1I
0?
1M
0J
1N
#850000
0!
0,
#855000
1!
1,
1`
0a
06
11
04
10
1;
07
15
0;
17
05
1@
0<
08
12
0@
1<
1A
0=
18
0A
1B
1=
0B
#860000
0!
0,
#865000
1!
1,
1a
16
01
14
00
1;
07
15
02
1@
0<
08
1A
0=
1B
#870000
0!
0,
#875000
1!
1,
1^
0_
0`
0a
06
11
04
10
1W
0;
17
05
0@
1<
0>
1:
1C
0A
1?
07
09
15
0<
0C
1A
0?
1K
0B
1=
18
1X
12
0:
0K
1L
1B
0=
08
0L
#880000
0!
0,
#885000
1!
1,
1a
1Y
1+
1Q
16
01
14
00
1$
0X
17
19
05
02
0B
18
1:
08
1=
#890000
0!
0,
#895000
1!
1,
0^
1_
0a
0Y
0+
0Q
06
11
04
10
0W
1<
1>
0:
0A
0I
1?
0$
1X
07
09
15
1I
0?
0M
1J
0X
12
18
0>
1:
1M
0J
0N
08
0I
1?
1N
0M
1J
0N
#900000
0!
0,
#905000
1!
1,
1a
16
01
14
00
17
19
05
02
1>
0:
18
1I
0?
1M
0J
1N
#910000
0!
0,
#915000
1!
1,
1`
0a
06
11
04
10
1;
07
15
0;
17
05
1@
0<
08
12
0@
1<
1A
0=
18
0A
1B
1=
0B
#920000
0!
0,
#925000
1!
1,
1a
16
01
14
00
1;
07
15
02
1@
0<
08
1A
0=
1B
#930000
0!
0,
#935000
1!
1,
1^
0_
0`
0a
06
11
04
10
1W
0;
17
05
0@
1<
0>
1:
1C
0A
1?
07
09
15
0<
0C
1A
0?
1K
0B
1=
18
1X
12
0:
0K
1L
1B
0=
08
0L
#940000
0!
0,
#945000
1!
1,
1a
1Y
1+
1Q
16
01
14
00
1$
0X
17
19
05
02
0B
18
1:
08
1=
#950000
0!
0,
#955000
1!
1,
0^
1_
0a
0Y
0+
0Q
06
11
04
10
0W
1<
1>
0:
0A
0I
1?
0$
1X
07
09
15
1I
0?
0M
1J
0X
12
18
0>
1:
1M
0J
0N
08
0I
1?
1N
0M
1J
0N
#960000
0!
0,
#965000
1!
1,
1a
16
01
14
00
17
19
05
02
1>
0:
18
1I
0?
1M
0J
1N
#970000
0!
0,
#975000
1!
1,
1`
0a
06
11
04
10
1;
07
15
0;
17
05
1@
0<
08
12
0@
1<
1A
0=
18
0A
1B
1=
0B
#980000
0!
0,
#985000
1!
1,
1a
16
01
14
00
1;
07
15
02
1@
0<
08
1A
0=
1B
#990000
0!
0,
#995000
1!
1,
1^
0_
0`
0a
06
11
04
10
1W
0;
17
05
0@
1<
0>
1:
1C
0A
1?
07
09
15
0<
0C
1A
0?
1K
0B
1=
18
1X
12
0:
0K
1L
1B
0=
08
0L
